<?xml version="1.0" encoding="UTF-8" standalone="no"?>
<!-- Created with Inkscape (http://www.inkscape.org/) -->

<svg
   xmlns:dc="http://purl.org/dc/elements/1.1/"
   xmlns:cc="http://creativecommons.org/ns#"
   xmlns:rdf="http://www.w3.org/1999/02/22-rdf-syntax-ns#"
   xmlns:svg="http://www.w3.org/2000/svg"
   xmlns="http://www.w3.org/2000/svg"
   xmlns:xlink="http://www.w3.org/1999/xlink"
   xmlns:sodipodi="http://sodipodi.sourceforge.net/DTD/sodipodi-0.dtd"
   xmlns:inkscape="http://www.inkscape.org/namespaces/inkscape"
   width="1052.3622"
   height="744.09448"
   id="svg2"
   sodipodi:version="0.32"
   inkscape:version="0.47 r22583"
   version="1.0"
   sodipodi:docname="repository-interaction.svg"
   inkscape:output_extension="org.inkscape.output.svg.inkscape">
  <defs
     id="defs4">
    <marker
       inkscape:stockid="Arrow1Lend"
       orient="auto"
       refY="0.0"
       refX="0.0"
       id="Arrow1Lend"
       style="overflow:visible;">
      <path
         id="path3485"
         d="M 0.0,0.0 L 5.0,-5.0 L -12.5,0.0 L 5.0,5.0 L 0.0,0.0 z "
         style="fill-rule:evenodd;stroke:#000000;stroke-width:1.0pt;marker-start:none;"
         transform="scale(0.8) rotate(180) translate(12.5,0)" />
    </marker>
    <linearGradient
       id="linearGradient3267">
      <stop
         style="stop-color:#000000;stop-opacity:1;"
         offset="0"
         id="stop3269" />
      <stop
         style="stop-color:#ffffff;stop-opacity:1;"
         offset="1"
         id="stop3271" />
    </linearGradient>
    <linearGradient
       id="linearGradient3182">
      <stop
         style="stop-color:#000000;stop-opacity:1;"
         offset="0"
         id="stop3184" />
      <stop
         style="stop-color:#000000;stop-opacity:0;"
         offset="1"
         id="stop3186" />
    </linearGradient>
    <linearGradient
       inkscape:collect="always"
       id="linearGradient3174">
      <stop
         style="stop-color:#000000;stop-opacity:1;"
         offset="0"
         id="stop3176" />
      <stop
         style="stop-color:#000000;stop-opacity:0;"
         offset="1"
         id="stop3178" />
    </linearGradient>
    <inkscape:perspective
       sodipodi:type="inkscape:persp3d"
       inkscape:vp_x="0 : 526.18109 : 1"
       inkscape:vp_y="0 : 1000 : 0"
       inkscape:vp_z="744.09448 : 526.18109 : 1"
       inkscape:persp3d-origin="372.04724 : 350.78739 : 1"
       id="perspective10" />
    <linearGradient
       inkscape:collect="always"
       xlink:href="#linearGradient3174"
       id="linearGradient3297"
       gradientUnits="userSpaceOnUse"
       x1="77.85714"
       y1="578.92523"
       x2="639.28571"
       y2="578.92523" />
    <inkscape:perspective
       id="perspective2915"
       inkscape:persp3d-origin="0.5 : 0.33333333 : 1"
       inkscape:vp_z="1 : 0.5 : 1"
       inkscape:vp_y="0 : 1000 : 0"
       inkscape:vp_x="0 : 0.5 : 1"
       sodipodi:type="inkscape:persp3d" />
    <filter
       inkscape:collect="always"
       id="filter3764"
       x="-0.24"
       width="1.48"
       y="-0.71999998"
       height="2.44">
      <feGaussianBlur
         inkscape:collect="always"
         stdDeviation="9.99078"
         id="feGaussianBlur3766" />
    </filter>
  </defs>
  <sodipodi:namedview
     id="base"
     pagecolor="#ffffff"
     bordercolor="#666666"
     borderopacity="1.0"
     inkscape:pageopacity="0.0"
     inkscape:pageshadow="2"
     inkscape:zoom="0.65717461"
     inkscape:cx="526.18109"
     inkscape:cy="357.59142"
     inkscape:document-units="px"
     inkscape:current-layer="layer2"
     showgrid="false"
     showguides="true"
     inkscape:guide-bbox="true"
     inkscape:window-width="1278"
     inkscape:window-height="747"
     inkscape:window-x="0"
     inkscape:window-y="19"
     inkscape:window-maximized="0" />
  <metadata
     id="metadata7">
    <rdf:RDF>
      <cc:Work
         rdf:about="">
        <dc:format>image/svg+xml</dc:format>
        <dc:type
           rdf:resource="http://purl.org/dc/dcmitype/StillImage" />
      </cc:Work>
    </rdf:RDF>
  </metadata>
  <g
     inkscape:label="repository"
     inkscape:groupmode="layer"
     id="layer1"
     style="display:inline">
    <g
       id="g3170"
       style="fill:#d3d7cf;fill-opacity:1"
       transform="matrix(0.5613802,0,0,0.5613802,349.59744,44.887325)">
      <path
         transform="translate(680,42.857143)"
         d="m -45.714294,420.93362 c 0,41.02687 -123.441486,74.28572 -275.714266,74.28572 -152.27278,0 -275.71426,-33.25885 -275.71426,-74.28572 0,-41.02686 123.44148,-74.28571 275.71426,-74.28571 152.27278,0 275.714266,33.25885 275.714266,74.28571 z"
         sodipodi:ry="74.285713"
         sodipodi:rx="275.71426"
         sodipodi:cy="420.93362"
         sodipodi:cx="-321.42856"
         id="path2383"
         style="fill:#d3d7cf;fill-opacity:1;fill-rule:nonzero;stroke:#000000;stroke-width:8.90662002999999913;stroke-linecap:butt;stroke-linejoin:round;stroke-miterlimit:4;stroke-opacity:1;stroke-dasharray:none;stroke-dashoffset:0;marker:none;visibility:visible;display:inline;overflow:visible;enable-background:accumulate"
         sodipodi:type="arc" />
      <path
         sodipodi:nodetypes="ccccc"
         id="rect2389"
         d="m 82.85714,463.36218 c 0,94.99604 551.28031,94.83804 551.28031,0 l 0,208.57138 c 0,128.5492 -551.28031,128.5492 -551.28031,0 l 0,-208.57138 z"
         style="fill:#d3d7cf;fill-opacity:1;fill-rule:nonzero;stroke:#000000;stroke-width:8.90662002999999913;stroke-linecap:butt;stroke-linejoin:round;stroke-miterlimit:4;stroke-opacity:1;stroke-dasharray:none;stroke-dashoffset:0;marker:none;visibility:visible;display:inline;overflow:visible;enable-background:accumulate" />
      <g
         id="g3277"
         style="fill:#d3d7cf"
         transform="translate(166.69239,-293.05597)" />
    </g>
    <text
       id="text2961"
       y="402.22028"
       x="547.21539"
       style="font-size:28.48188019px;font-style:normal;font-weight:normal;text-align:center;text-anchor:middle;fill:#000000;fill-opacity:1;stroke:none;display:inline;font-family:Bitstream Vera Sans"
       xml:space="preserve"><tspan
         id="tspan2963"
         y="402.22028"
         x="547.21539"
         sodipodi:role="line">Project</tspan><tspan
         y="437.82263"
         x="547.21539"
         sodipodi:role="line"
         id="tspan2965">Repository</tspan></text>
  </g>
  <g
     inkscape:groupmode="layer"
     id="layer2"
     inkscape:label="developers"
     style="display:inline">
    <g
       id="g3329"
       transform="translate(306.9541,-502.80193)"
       style="fill:#fce94f">
      <path
         style="fill:#fce94f;fill-opacity:1;fill-rule:nonzero;stroke:#000000;stroke-width:5;stroke-linecap:butt;stroke-linejoin:round;stroke-miterlimit:4;stroke-opacity:1;stroke-dashoffset:0;marker:none;visibility:visible;display:inline;overflow:visible;enable-background:accumulate"
         d="m 217.21808,584.86128 34.71435,0 20.76884,61.8821 -74.49487,0 19.01168,-61.8821 z"
         id="rect3206"
         sodipodi:nodetypes="ccccc" />
      <path
         sodipodi:type="arc"
         style="fill:#fce94f;fill-opacity:1;fill-rule:nonzero;stroke:#000000;stroke-width:5;stroke-linecap:butt;stroke-linejoin:round;stroke-miterlimit:4;stroke-opacity:1;stroke-dasharray:none;stroke-dashoffset:0;marker:none;visibility:visible;display:inline;overflow:visible;enable-background:accumulate"
         id="path3204"
         sodipodi:cx="101.87906"
         sodipodi:cy="385.6311"
         sodipodi:rx="29.431728"
         sodipodi:ry="29.431728"
         d="m 131.31079,385.6311 c 0,16.2547 -13.17704,29.43173 -29.43173,29.43173 -16.254696,0 -29.43173,-13.17703 -29.43173,-29.43173 0,-16.25469 13.177034,-29.43172 29.43173,-29.43172 16.25469,0 29.43173,13.17703 29.43173,29.43172 z"
         transform="translate(132.69619,189.4196)" />
    </g>
    <g
       transform="translate(327.60243,47.42445)"
       id="g3355"
       style="fill:#cc0000">
      <path
         sodipodi:nodetypes="ccccc"
         id="path3357"
         d="m 217.21808,584.86128 34.71435,0 20.76884,61.8821 -74.49487,0 19.01168,-61.8821 z"
         style="fill:#cc0000;fill-opacity:1;fill-rule:nonzero;stroke:#000000;stroke-width:5;stroke-linecap:butt;stroke-linejoin:round;stroke-miterlimit:4;stroke-opacity:1;stroke-dashoffset:0;marker:none;visibility:visible;display:inline;overflow:visible;enable-background:accumulate" />
      <path
         transform="translate(132.69619,189.4196)"
         d="m 131.31079,385.6311 c 0,16.2547 -13.17704,29.43173 -29.43173,29.43173 -16.254696,0 -29.43173,-13.17703 -29.43173,-29.43173 0,-16.25469 13.177034,-29.43172 29.43173,-29.43172 16.25469,0 29.43173,13.17703 29.43173,29.43172 z"
         sodipodi:ry="29.431728"
         sodipodi:rx="29.431728"
         sodipodi:cy="385.6311"
         sodipodi:cx="101.87906"
         id="path3359"
         style="fill:#cc0000;fill-opacity:1;fill-rule:nonzero;stroke:#000000;stroke-width:5;stroke-linecap:butt;stroke-linejoin:round;stroke-miterlimit:4;stroke-opacity:1;stroke-dasharray:none;stroke-dashoffset:0;marker:none;visibility:visible;display:inline;overflow:visible;enable-background:accumulate"
         sodipodi:type="arc" />
    </g>
    <g
       id="g3367"
       transform="translate(663.52411,-371.86572)"
       style="fill:#729fcf">
      <path
         style="fill:#729fcf;fill-opacity:1;fill-rule:nonzero;stroke:#000000;stroke-width:5;stroke-linecap:butt;stroke-linejoin:round;stroke-miterlimit:4;stroke-opacity:1;stroke-dashoffset:0;marker:none;visibility:visible;display:inline;overflow:visible;enable-background:accumulate"
         d="m 217.21808,584.86128 34.71435,0 20.76884,61.8821 -74.49487,0 19.01168,-61.8821 z"
         id="path3369"
         sodipodi:nodetypes="ccccc" />
      <path
         sodipodi:type="arc"
         style="fill:#729fcf;fill-opacity:1;fill-rule:nonzero;stroke:#000000;stroke-width:5;stroke-linecap:butt;stroke-linejoin:round;stroke-miterlimit:4;stroke-opacity:1;stroke-dasharray:none;stroke-dashoffset:0;marker:none;visibility:visible;display:inline;overflow:visible;enable-background:accumulate"
         id="path3371"
         sodipodi:cx="101.87906"
         sodipodi:cy="385.6311"
         sodipodi:rx="29.431728"
         sodipodi:ry="29.431728"
         d="m 131.31079,385.6311 c 0,16.2547 -13.17704,29.43173 -29.43173,29.43173 -16.254696,0 -29.43173,-13.17703 -29.43173,-29.43173 0,-16.25469 13.177034,-29.43172 29.43173,-29.43172 16.25469,0 29.43173,13.17703 29.43173,29.43172 z"
         transform="translate(132.69619,189.4196)" />
    </g>
    <g
       transform="translate(661.47847,-78.747698)"
       id="g3379"
       style="fill:#73d216">
      <path
         sodipodi:nodetypes="ccccc"
         id="path3381"
         d="m 217.21808,584.86128 34.71435,0 20.76884,61.8821 -74.49487,0 19.01168,-61.8821 z"
         style="fill:#73d216;fill-opacity:1;fill-rule:nonzero;stroke:#000000;stroke-width:5;stroke-linecap:butt;stroke-linejoin:round;stroke-miterlimit:4;stroke-opacity:1;stroke-dashoffset:0;marker:none;visibility:visible;display:inline;overflow:visible;enable-background:accumulate" />
      <path
         transform="translate(132.69619,189.4196)"
         d="m 131.31079,385.6311 c 0,16.2547 -13.17704,29.43173 -29.43173,29.43173 -16.254696,0 -29.43173,-13.17703 -29.43173,-29.43173 0,-16.25469 13.177034,-29.43172 29.43173,-29.43172 16.25469,0 29.43173,13.17703 29.43173,29.43172 z"
         sodipodi:ry="29.431728"
         sodipodi:rx="29.431728"
         sodipodi:cy="385.6311"
         sodipodi:cx="101.87906"
         id="path3383"
         style="fill:#73d216;fill-opacity:1;fill-rule:nonzero;stroke:#000000;stroke-width:5;stroke-linecap:butt;stroke-linejoin:round;stroke-miterlimit:4;stroke-opacity:1;stroke-dasharray:none;stroke-dashoffset:0;marker:none;visibility:visible;display:inline;overflow:visible;enable-background:accumulate"
         sodipodi:type="arc" />
    </g>
    <g
       transform="translate(-9.0982979,-84.139837)"
       id="g3391"
       style="fill:#75507b">
      <path
         sodipodi:nodetypes="ccccc"
         id="path3393"
         d="m 217.21808,584.86128 34.71435,0 20.76884,61.8821 -74.49487,0 19.01168,-61.8821 z"
         style="fill:#75507b;fill-opacity:1;fill-rule:nonzero;stroke:#000000;stroke-width:5;stroke-linecap:butt;stroke-linejoin:round;stroke-miterlimit:4;stroke-opacity:1;stroke-dashoffset:0;marker:none;visibility:visible;display:inline;overflow:visible;enable-background:accumulate" />
      <path
         transform="translate(132.69619,189.4196)"
         d="m 131.31079,385.6311 c 0,16.2547 -13.17704,29.43173 -29.43173,29.43173 -16.254696,0 -29.43173,-13.17703 -29.43173,-29.43173 0,-16.25469 13.177034,-29.43172 29.43173,-29.43172 16.25469,0 29.43173,13.17703 29.43173,29.43172 z"
         sodipodi:ry="29.431728"
         sodipodi:rx="29.431728"
         sodipodi:cy="385.6311"
         sodipodi:cx="101.87906"
         id="path3395"
         style="fill:#75507b;fill-opacity:1;fill-rule:nonzero;stroke:#000000;stroke-width:5;stroke-linecap:butt;stroke-linejoin:round;stroke-miterlimit:4;stroke-opacity:1;stroke-dasharray:none;stroke-dashoffset:0;marker:none;visibility:visible;display:inline;overflow:visible;enable-background:accumulate"
         sodipodi:type="arc" />
    </g>
    <g
       transform="translate(-4.4264211,-404.79802)"
       id="g3403"
       style="fill:#ce5c00">
      <path
         sodipodi:nodetypes="ccccc"
         id="path3405"
         d="m 217.21808,584.86128 34.71435,0 20.76884,61.8821 -74.49487,0 19.01168,-61.8821 z"
         style="fill:#ce5c00;fill-opacity:1;fill-rule:nonzero;stroke:#000000;stroke-width:5;stroke-linecap:butt;stroke-linejoin:round;stroke-miterlimit:4;stroke-opacity:1;stroke-dashoffset:0;marker:none;visibility:visible;display:inline;overflow:visible;enable-background:accumulate" />
      <path
         transform="translate(132.69619,189.4196)"
         d="m 131.31079,385.6311 c 0,16.2547 -13.17704,29.43173 -29.43173,29.43173 -16.254696,0 -29.43173,-13.17703 -29.43173,-29.43173 0,-16.25469 13.177034,-29.43172 29.43173,-29.43172 16.25469,0 29.43173,13.17703 29.43173,29.43172 z"
         sodipodi:ry="29.431728"
         sodipodi:rx="29.431728"
         sodipodi:cy="385.6311"
         sodipodi:cx="101.87906"
         id="path3407"
         style="fill:#ce5c00;fill-opacity:1;fill-rule:nonzero;stroke:#000000;stroke-width:5;stroke-linecap:butt;stroke-linejoin:round;stroke-miterlimit:4;stroke-opacity:1;stroke-dasharray:none;stroke-dashoffset:0;marker:none;visibility:visible;display:inline;overflow:visible;enable-background:accumulate"
         sodipodi:type="arc" />
    </g>
  </g>
  <g
     inkscape:groupmode="layer"
     id="layer3"
     inkscape:label="write access"
     style="display:inline">
    <path
       style="fill:none;stroke:#000000;stroke-width:2;stroke-linecap:butt;stroke-linejoin:miter;stroke-miterlimit:4;stroke-opacity:1;stroke-dasharray:none;marker-end:url(#Arrow1Lend);display:inline"
       d="m 541.84568,159.98786 0,87.54053"
       id="path3477" />
    <path
       style="fill:none;stroke:#000000;stroke-width:2;stroke-linecap:butt;stroke-linejoin:miter;stroke-miterlimit:4;stroke-opacity:1;stroke-dasharray:none;stroke-dashoffset:0;marker:none;marker-end:url(#Arrow1Lend);visibility:visible;display:inline;overflow:visible;enable-background:accumulate"
       d="m 558.44819,582.5973 0,-89.04984"
       id="path4257" />
    <path
       style="fill:none;stroke:#000000;stroke-width:2;stroke-linecap:butt;stroke-linejoin:miter;stroke-miterlimit:4;stroke-opacity:1;stroke-dasharray:none;stroke-dashoffset:0;marker:none;marker-end:url(#Arrow1Lend);visibility:visible;display:inline;overflow:visible;enable-background:accumulate"
       d="m 282.24273,241.49111 102.63373,49.80754"
       id="path4259" />
    <path
       style="fill:none;stroke:#000000;stroke-width:2;stroke-linecap:butt;stroke-linejoin:miter;stroke-miterlimit:4;stroke-opacity:1;stroke-dasharray:none;stroke-dashoffset:0;marker:none;marker-end:url(#Arrow1Lend);visibility:visible;display:inline;overflow:visible;enable-background:accumulate"
       d="M 857.29344,495.05678 712.39877,433.17468"
       id="path4265" />
    <text
       xml:space="preserve"
       style="font-size:28.48188019px;font-style:normal;font-weight:normal;fill:#000000;fill-opacity:1;stroke:none;font-family:Bitstream Vera Sans"
       x="280.02682"
       y="191.48796"
       id="text2877"><tspan
         sodipodi:role="line"
         id="tspan2879"
         x="280.02682"
         y="191.48796">repository</tspan><tspan
         sodipodi:role="line"
         x="280.02682"
         y="227.09032"
         id="tspan2881">write</tspan></text>
    <text
       id="text2883"
       y="177.51562"
       x="554.80096"
       style="font-size:28.48188019px;font-style:normal;font-weight:normal;fill:#000000;fill-opacity:1;stroke:none;font-family:Bitstream Vera Sans"
       xml:space="preserve"><tspan
         y="177.51562"
         x="554.80096"
         id="tspan2885"
         sodipodi:role="line">repository</tspan><tspan
         id="tspan2887"
         y="213.11798"
         x="554.80096"
         sodipodi:role="line">write</tspan></text>
    <text
       id="text2895"
       y="545.51849"
       x="544.14038"
       style="font-size:28.48188019px;font-style:normal;font-weight:normal;text-align:end;text-anchor:end;fill:#000000;fill-opacity:1;stroke:none;font-family:Bitstream Vera Sans"
       xml:space="preserve"><tspan
         y="545.51849"
         x="544.14038"
         id="tspan2897"
         sodipodi:role="line">repository</tspan><tspan
         id="tspan2899"
         y="581.12085"
         x="544.14038"
         sodipodi:role="line">write</tspan></text>
    <text
       xml:space="preserve"
       style="font-size:28.48188019px;font-style:normal;font-weight:normal;text-align:end;text-anchor:end;fill:#000000;fill-opacity:1;stroke:none;font-family:Bitstream Vera Sans"
       x="855.75946"
       y="522.18823"
       id="text2901"><tspan
         sodipodi:role="line"
         id="tspan2903"
         x="855.75946"
         y="522.18823">repository</tspan><tspan
         sodipodi:role="line"
         x="855.75946"
         y="557.79059"
         id="tspan2905">write</tspan></text>
  </g>
  <g
     inkscape:groupmode="layer"
     id="layer4"
     inkscape:label="no write access"
     style="display:inline">
    <path
       style="fill:none;stroke:#000000;stroke-width:2;stroke-linecap:butt;stroke-linejoin:miter;stroke-miterlimit:4;stroke-opacity:1;stroke-dasharray:none;stroke-dashoffset:0;marker:none;marker-end:url(#Arrow1Lend);visibility:visible;display:inline;overflow:visible;enable-background:accumulate"
       d="M 228.6375,454.61677 226.39792,250.54703"
       id="path4263"
       sodipodi:nodetypes="cc" />
    <path
       style="fill:none;stroke:#000000;stroke-width:2;stroke-linecap:butt;stroke-linejoin:miter;stroke-miterlimit:4;stroke-opacity:1;stroke-dasharray:none;stroke-dashoffset:0;marker:none;marker-end:url(#Arrow1Lend);visibility:visible;display:inline;overflow:visible;enable-background:accumulate"
       d="m 898.04506,286.77069 0.0579,165.72183"
       id="path4267"
       sodipodi:nodetypes="cc" />
    <text
       xml:space="preserve"
       style="font-size:28.48188019px;font-style:normal;font-weight:normal;fill:#000000;fill-opacity:1;stroke:none;display:inline;font-family:Bitstream Vera Sans"
       x="142.58881"
       y="363.9223"
       id="text2877-5"><tspan
         sodipodi:role="line"
         x="142.58881"
         y="363.9223"
         id="tspan2881-7">patch</tspan></text>
    <text
       id="text2939"
       y="353.93152"
       x="903.55322"
       style="font-size:28.48188019px;font-style:normal;font-weight:normal;fill:#000000;fill-opacity:1;stroke:none;display:inline;font-family:Bitstream Vera Sans"
       xml:space="preserve"><tspan
         id="tspan2941"
         y="353.93152"
         x="903.55322"
         sodipodi:role="line">patch</tspan></text>
  </g>
</svg>
